<?xml version="1.0" encoding="utf-8"?>
<!-- Generator: Adobe Illustrator 24.0.0, SVG Export Plug-In . SVG Version: 6.00 Build 0)  -->
<svg version="1.1" id="Capa_1" xmlns="http://www.w3.org/2000/svg" xmlns:xlink="http://www.w3.org/1999/xlink" x="0px" y="0px"
	 viewBox="0 0 330 330" style="enable-background:new 0 0 330 330;" xml:space="preserve">
<style type="text/css">
	.st0{fill:#F06664;}
</style>
<g>
	<path class="st0" d="M165,0C74,0,0,74,0,165s74,165,165,165s165-74,165-165S256,0,165,0z M165,300c-74.4,0-135-60.6-135-135
		S90.6,30,165,30s135,60.6,135,135S239.4,300,165,300z"/>
	<path class="st0" d="M165,70c-11,0-20,9-20,20s9,20,20,20s20-9,20-20S176,70,165,70z"/>
	<path class="st0" d="M165,140c-8.3,0-15,6.7-15,15v90c0,8.3,6.7,15,15,15s15-6.7,15-15v-90C180,146.7,173.3,140,165,140z"/>
</g>
</svg>
